%YAML 1.1
%TAG !u! tag:unity3d.com,2011:
--- !u!21 &2100000
Material:
  serializedVersion: 8
  m_ObjectHideFlags: 0
  m_CorrespondingSourceObject: {fileID: 0}
  m_PrefabInstance: {fileID: 0}
  m_PrefabAsset: {fileID: 0}
  m_Name: Water_mat_03
  m_Shader: {fileID: -6465566751694194690, guid: dd97de70edf8a4141bee758a2efe7ff8, type: 3}
  m_ValidKeywords: []
  m_InvalidKeywords: []
  m_LightmapFlags: 4
  m_EnableInstancingVariants: 1
  m_DoubleSidedGI: 0
  m_CustomRenderQueue: -1
  stringTagMap: {}
  disabledShaderPasses: []
  m_SavedProperties:
    serializedVersion: 3
    m_TexEnvs:
    - Texture2D_28de85506601443d82b6148f21ccc69c:
        m_Texture: {fileID: 8400000, guid: 4ae8ae7350b67b44785d874c413a2e03, type: 2}
        m_Scale: {x: 1, y: 1}
        m_Offset: {x: 0, y: 0}
    - Texture2D_6d0f902902b04ba687ee00a51db7ba6d:
        m_Texture: {fileID: 2800000, guid: 2ed3d41b7c655bf4daa77f71b994f6ed, type: 3}
        m_Scale: {x: 1, y: 1}
        m_Offset: {x: 0, y: 0}
    - Texture2D_786b67b3efe14204b2f06f9afb9d8cf1:
        m_Texture: {fileID: 2800000, guid: 11154d936b05e66498f68fa178c5cfbb, type: 3}
        m_Scale: {x: 1, y: 1}
        m_Offset: {x: 0, y: 0}
    - _Texture2DAsset_a7c025c2aba147adbdae5627d7dffcc2_Out_0:
        m_Texture: {fileID: 0}
        m_Scale: {x: 1, y: 1}
        m_Offset: {x: 0, y: 0}
    - unity_Lightmaps:
        m_Texture: {fileID: 0}
        m_Scale: {x: 1, y: 1}
        m_Offset: {x: 0, y: 0}
    - unity_LightmapsInd:
        m_Texture: {fileID: 0}
        m_Scale: {x: 1, y: 1}
        m_Offset: {x: 0, y: 0}
    - unity_ShadowMasks:
        m_Texture: {fileID: 0}
        m_Scale: {x: 1, y: 1}
        m_Offset: {x: 0, y: 0}
    m_Ints: []
    m_Floats:
    - Boolean_d3c978b0d14a4f66be175a9b89855be0: 0
    - Vector1_55003dfa023448c3bffa42f3ca4a99a4: -0.08
    - Vector1_6269b1025b26473ca8bc61634f34b537: 1
    - Vector1_687f54e8c371429f86b9eaab0e7dfe3e: 0.5
    - Vector1_6c82dffdd68049bcb019d3a9c64c92a0: 0.1
    - Vector1_6f56a0970372485390c6587863c2374e: -2
    - Vector1_7273530c27a34c9f8ee5723b84f96baa: 0.5
    - Vector1_dada42ebfac44076897b6de67441ba32: 0.3
    m_Colors:
    - Color_36218622185947c6a5ae36366d8e21d8: {r: 0.18801177, g: 0.55574864, b: 0.6132076, a: 0.9607843}
    - Color_93e06cd551a5449091bcde90b46765a0: {r: 0.1702118, g: 0.7075472, b: 0.6965743, a: 0.19607843}
    - Vector2_4351ac2be1d74054986ec5378db9d578: {r: 5, g: 5, b: 0, a: 0}
  m_BuildTextureStacks: []
--- !u!114 &170300529513756163
MonoBehaviour:
  m_ObjectHideFlags: 11
  m_CorrespondingSourceObject: {fileID: 0}
  m_PrefabInstance: {fileID: 0}
  m_PrefabAsset: {fileID: 0}
  m_GameObject: {fileID: 0}
  m_Enabled: 1
  m_EditorHideFlags: 0
  m_Script: {fileID: 11500000, guid: d0353a89b1f911e48b9e16bdc9f2e058, type: 3}
  m_Name: 
  m_EditorClassIdentifier: 
  version: 5
